{"pagination":{"current_page":1,"per_page":50,"total_items":6110,"total_pages":123,"next_page":2,"prev_page":null},"data":[{"hotkey":{"ss58":"5HmmmmhaoDbmt4KcYmAXETvfGBwFmcNgVCYSBH5JZRv6wrFf","hex":"0xfc7f68e942fbf83c172b38e26ac733aa85d1e7259f1b6d8dc5ba8222baf76778"},"name":null,"netuid":29,"block_number":7295344,"timestamp":"2026-01-11T03:41:48Z","stake":"2134772574805643","one_hour_apy":"0.3717124232737023174516144087","one_day_apy":"0.3717483377957317796518059628","seven_day_apy":"0.37427393689888216657685","thirty_day_apy":"0.3822932583507540153137","one_day_epoch_participation":"1","seven_day_epoch_participation":"1","thirty_day_epoch_participation":"1"},{"hotkey":{"ss58":"5DqALXRZumwGDyaJWRJ2fMzBqPxEuoqWypnexcwuYMDdohsE","hex":"0x4e242bfd5f0b4b48a1d0a999ccc6db68fdb2fd5606692489b4539cfc119b747a"},"name":null,"netuid":77,"block_number":7295344,"timestamp":"2026-01-11T03:41:48Z","stake":"1269957531793245","one_hour_apy":"0.4515786404607236888643763139","one_day_apy":"0.4524027381685286883832893743","seven_day_apy":"0.455195336612040111362","thirty_day_apy":"0.46418221367040556277275","one_day_epoch_participation":"1","seven_day_epoch_participation":"1","thirty_day_epoch_participation":"1"},{"hotkey":{"ss58":"5DtBXSbZH3GV4Mv6JiT5JGasQDMh66hdm3VHy4PNq1rQWVtP","hex":"0x5071e86f9ede0c930806f30fe0c6c4d944d2defc4491734a3c8baba0cdfbc97e"},"name":null,"netuid":104,"block_number":7295344,"timestamp":"2026-01-11T03:41:48Z","stake":"1231336627746797","one_hour_apy":"0.5159731724032696384488795894","one_day_apy":"0.4995307158339549241008469358","seven_day_apy":"0.5054533797468702546809","thirty_day_apy":"0.51782569412692903979595","one_day_epoch_participation":"1","seven_day_epoch_participation":"1","thirty_day_epoch_participation":"1"},{"hotkey":{"ss58":"5HdrwVQQbMa8Wh271PDzvMHmM44wYM5wfnXCW3o97gDisuaY","hex":"0xf676d79810504bb85ceb0b2a645be616af0c6fc6efca41a711e9bffda68db538"},"name":"Zeus","netuid":18,"block_number":7295344,"timestamp":"2026-01-11T03:41:48Z","stake":"1117734680099488","one_hour_apy":"0.3797961237535831868144972712","one_day_apy":"0.3815297767131427586102767245","seven_day_apy":"0.38280486489746614474995","thirty_day_apy":"0.38654884826945561891495","one_day_epoch_participation":"1","seven_day_epoch_participation":"1","thirty_day_epoch_participation":"1"},{"hotkey":{"ss58":"5FeNwZ5oAqcJMitNqGx71vxGRWJhsdTqxFGVwPRfg8h2UZmo","hex":"0x9e635e317258379e0ca7e8f99f9ba5bf79bf3133a4f59dd18a908abb77237031"},"name":"Glitch Financial","netuid":8,"block_number":7295344,"timestamp":"2026-01-11T03:41:48Z","stake":"1110022317134926","one_hour_apy":"0.5209896106006040014405705663","one_day_apy":"0.5213400271375599729984029320","seven_day_apy":"0.52046298292148051100805","thirty_day_apy":"0.526580299568758023528","one_day_epoch_participation":"1","seven_day_epoch_participation":"1","thirty_day_epoch_participation":"1"},{"hotkey":{"ss58":"5Dnkprjf9fUrvWq3ZfFP8WrUNSjQws6UoHkbDfR1bQK8pFhW","hex":"0x4c4e88c540deff5c4cba972c82bea75867c97722ec627783296fcbea8b2d0c7c"},"name":"fx-integral","netuid":73,"block_number":7295344,"timestamp":"2026-01-11T03:41:48Z","stake":"1005332345006103","one_hour_apy":"0.4097770155765435799446985057","one_day_apy":"0.4104804945519289149815329994","seven_day_apy":"0.42027492500008879922965","thirty_day_apy":"0.42839174660550199081855","one_day_epoch_participation":"1","seven_day_epoch_participation":"1","thirty_day_epoch_participation":"1"},{"hotkey":{"ss58":"5HjMs5JDrLH3Hknmfm1gDq7nFYAv6M7t9v3EWMctSRXJS9HC","hex":"0xfaa86f83e4f3a1c997ebcc87dfd434a95d6a600adf17c2c62e6a17593fd92d67"},"name":"Owner43","netuid":43,"block_number":7295344,"timestamp":"2026-01-11T03:41:48Z","stake":"964586187053416","one_hour_apy":"0.6453496834643750060943405776","one_day_apy":"0.6410225120304550329986722175","seven_day_apy":"0.65179442310585233699835","thirty_day_apy":"0.59843764979748388574035","one_day_epoch_participation":"1","seven_day_epoch_participation":"0.99295774647887323944","thirty_day_epoch_participation":"0.99667221297836938436"},{"hotkey":{"ss58":"5Gjr7VuYJC8D58d9S2iZofu7FzFvRiRjpM4zpAaDdqb1Wy6V","hex":"0xcecb4bb560feb940403bb5eb6896361425d24e4d8888afa43482ad2701d0f501"},"name":"Gittensor","netuid":74,"block_number":7295344,"timestamp":"2026-01-11T03:41:48Z","stake":"886197928517735","one_hour_apy":"0.4998036545247275541275459969","one_day_apy":"0.4785842567875601130592485597","seven_day_apy":"0.40928537592907012825755","thirty_day_apy":"0.41365814103037212733435","one_day_epoch_participation":"1","seven_day_epoch_participation":"1","thirty_day_epoch_participation":"1"},{"hotkey":{"ss58":"5E2LP6EnZ54m3wS8s1yPvD5c3xo71kQroBw7aUVK32TKeZ5u","hex":"0x56a9aee6291bd03ab6d36d4d13e2bebae7cd403518066c72fba1b417d6ddd748"},"name":"tao.bot","netuid":0,"block_number":7295344,"timestamp":"2026-01-11T03:41:48Z","stake":"832136141937363","one_hour_apy":"0.0617094636747164715091562499","one_day_apy":"0.0610387938398583355634413320","seven_day_apy":"0.0772248010440521593219","thirty_day_apy":"0.07018842037565685211555","one_day_epoch_participation":null,"seven_day_epoch_participation":null,"thirty_day_epoch_participation":null},{"hotkey":{"ss58":"5HK4vbGgLQdFKarN3hLVqNRbgQtQR5w3WTZ2tTnFHHLPgXpY","hex":"0xe82185dda3905aade7965781cd903b78b2bf33bfb3f63ec6b1e879f8df8ef448"},"name":"88","netuid":88,"block_number":7295344,"timestamp":"2026-01-11T03:41:48Z","stake":"828652537834292","one_hour_apy":"0.4084296546473837182272466528","one_day_apy":"0.4079090821361733346163156742","seven_day_apy":"0.399610929520789679696","thirty_day_apy":"0.43164613242174838616625","one_day_epoch_participation":"1","seven_day_epoch_participation":"1","thirty_day_epoch_participation":"1"},{"hotkey":{"ss58":"5EWwdZB7qCCMaAso5Mzcks4UUcPxKYvpAj32t5Mg1v6HSxoF","hex":"0x6c7b36ebbd68d14312b6951e258c84f67135fa8face57fb4d5394f94ae8e8335"},"name":null,"netuid":79,"block_number":7295344,"timestamp":"2026-01-11T03:41:48Z","stake":"822957190419778","one_hour_apy":"0.3929690728431505336289049234","one_day_apy":"0.4086295482264136979344374220","seven_day_apy":"0.44338202519939012808625","thirty_day_apy":"0.448351972598318721571","one_day_epoch_participation":"1","seven_day_epoch_participation":"1","thirty_day_epoch_participation":"1"},{"hotkey":{"ss58":"5HjBSeeoz52CLfvDWDkzupqrYLHz1oToDPHjdmJjc4TF68LQ","hex":"0xfa855ae0c00667324315f7a72c60361dfe7b749a4935e238413c72d921cc4572"},"name":"BitMind","netuid":34,"block_number":7295344,"timestamp":"2026-01-11T03:41:48Z","stake":"803130325762451","one_hour_apy":"0.6190638566423097290860239029","one_day_apy":"0.6207685537258908883061058705","seven_day_apy":"0.6304608216281663721447","thirty_day_apy":"0.63004692346086440941795","one_day_epoch_participation":"1","seven_day_epoch_participation":"1","thirty_day_epoch_participation":"1"},{"hotkey":{"ss58":"5FNVgRnrxMibhcBGEAaajGrYjsaCn441a5HuGUBUNnxEBLo9","hex":"0x924620afb270acb1ee27bd034aa9e97108ef276da5079db982883cd70294741a"},"name":"Leadpoet / SN71 Primary Validator","netuid":71,"block_number":7295344,"timestamp":"2026-01-11T03:41:48Z","stake":"791736796942970","one_hour_apy":"0.3902065981431599308588211456","one_day_apy":"0.3914452247386642384994957102","seven_day_apy":"0.39044912073182434679835","thirty_day_apy":"0.40528213719227901808475","one_day_epoch_participation":"1","seven_day_epoch_participation":"1","thirty_day_epoch_participation":"1"},{"hotkey":{"ss58":"5ExaAP3ENz3bCJufTzWzs6J6dCWuhjjURT8AdZkQ5qA4As2o","hex":"0x800753561df323d580c56c13ee1e398433688fcba46fdbba4b57cf98e6181e59"},"name":"Rizzo (Insured)","netuid":20,"block_number":7295344,"timestamp":"2026-01-11T03:41:48Z","stake":"767852822011640","one_hour_apy":"0.4904822102344592110804523056","one_day_apy":"0.4902250492029034420066431726","seven_day_apy":"0.4982930220574044554342","thirty_day_apy":"0.52519435359180694032705","one_day_epoch_participation":"1","seven_day_epoch_participation":"1","thirty_day_epoch_participation":"1"},{"hotkey":{"ss58":"5GxADSjVkV22Kbi7v4BTFsUzqTavrjkVNmf1zKq6FZLkYJ7H","hex":"0xd82f2dd6653b75955f79deefe53c2d679d522b880077b2c1d194ff18afdd8022"},"name":"Sportstensor","netuid":41,"block_number":7295344,"timestamp":"2026-01-11T03:41:48Z","stake":"754908314800012","one_hour_apy":"0.4484028714699765809419378644","one_day_apy":"0.4438348405415787331256523680","seven_day_apy":"0.41747262009291800753325","thirty_day_apy":"0.4419077656785150420283","one_day_epoch_participation":"1","seven_day_epoch_participation":"1","thirty_day_epoch_participation":"1"},{"hotkey":{"ss58":"5CsvRJXuR955WojnGMdok1hbhffZyB4N5ocrv82f3p5A2zVp","hex":"0x2402d2dd859f24ff5305ce12d54e02f3c2cafe6788af4b405bbe0d407695af37"},"name":"tao5","netuid":32,"block_number":7295344,"timestamp":"2026-01-11T03:41:48Z","stake":"741333868274258","one_hour_apy":"0.3840835860580359300831963802","one_day_apy":"0.3846719618670739997626383651","seven_day_apy":"0.38184390165414883090575","thirty_day_apy":"0.40110025239200860941205","one_day_epoch_participation":"1","seven_day_epoch_participation":"1","thirty_day_epoch_participation":"1"},{"hotkey":{"ss58":"5CATQqY6rA26Kkvm2abMTRtxnwyxigHZKxNJq86bUcpYsn35","hex":"0x0462d851b4c14283935334157a31249721e8da6d6676dc91789f55eaade8805b"},"name":"RoundTable21","netuid":35,"block_number":7295344,"timestamp":"2026-01-11T03:41:48Z","stake":"741274525812037","one_hour_apy":"0.2815246958181472829917585678","one_day_apy":"0.2802951349531540916516001931","seven_day_apy":"0.28559167985033787146935","thirty_day_apy":"0.2971600119960641141074","one_day_epoch_participation":"1","seven_day_epoch_participation":"1","thirty_day_epoch_participation":"1"},{"hotkey":{"ss58":"5FYwKoHYfiuy9m2yM4wbwM5pQyaEP38MBTTZS8RwNKRuQ8mi","hex":"0x9a3ce87ffd6a95a11a9bfe50ceab29f3fbf5914ce1850d03461f19fb31fdc821"},"name":"Macrocosmos","netuid":25,"block_number":7295344,"timestamp":"2026-01-11T03:41:48Z","stake":"720758803543212","one_hour_apy":"0.4609129835535824124100849668","one_day_apy":"0.4701087039087151938459330908","seven_day_apy":"0.48698777310905774084665","thirty_day_apy":"0.519799217504044559943","one_day_epoch_participation":"1","seven_day_epoch_participation":"1","thirty_day_epoch_participation":"1"},{"hotkey":{"ss58":"5HBg742kVS1KXhKQGJhEMsyNcxatQzpyttipazfqGJSBS98o","hex":"0xe27dfcc356f61355c7e3ff27e0a60fd2ec937722af9c51ad1a297958cd23a277"},"name":"InfiniteHash Chef","netuid":89,"block_number":7295344,"timestamp":"2026-01-11T03:41:48Z","stake":"719790201581455","one_hour_apy":"0.5441168348354041399447313443","one_day_apy":"0.5459492083655546336343217913","seven_day_apy":"0.55157303094996546684225","thirty_day_apy":"0.58538241435895654937435","one_day_epoch_participation":"1","seven_day_epoch_participation":"1","thirty_day_epoch_participation":"1"},{"hotkey":{"ss58":"5FnLxqpzUFgrzW8aLjR5oYB8BUUS7XN9efw3N3diPpaxmTgt","hex":"0xa476ac62254766e52ba3a6c8902090fc75c3fafeb5067867f8b88f9ed738e00b"},"name":"Owner26","netuid":26,"block_number":7295344,"timestamp":"2026-01-11T03:41:48Z","stake":"712930120282156","one_hour_apy":"0.3580396706913960794460709003","one_day_apy":"0.3555068093719310967265616632","seven_day_apy":"0.3800301731632692625551","thirty_day_apy":"0.40604989342769477698595","one_day_epoch_participation":"1","seven_day_epoch_participation":"1","thirty_day_epoch_participation":"1"},{"hotkey":{"ss58":"5F9Qvcz22Fwq4cm58o2bShiL6n8BnJmhqXB1cispBpqRfN6w","hex":"0x884bedff720da8dbd2b2e993cde0890b82f1974827cfae094a56d674ca994d13"},"name":"Owner40","netuid":40,"block_number":7295344,"timestamp":"2026-01-11T03:41:48Z","stake":"709900754631187","one_hour_apy":"0.4587818827170728632688102076","one_day_apy":"0.4583699077133378779788706675","seven_day_apy":"0.4694387722095878909277","thirty_day_apy":"0.4998168829157357277742","one_day_epoch_participation":"1","seven_day_epoch_participation":"1","thirty_day_epoch_participation":"1"},{"hotkey":{"ss58":"5Ckaoft1B1CQ9zBV2FLVju4KPuMQzJVn7QUf3JeTvTq1uUes","hex":"0x1e6a13fdfb36d77467c3f7fe1d7eeedee18b9f2a82d8d9bc7e595721efd9c97f"},"name":"Kraken","netuid":0,"block_number":7295344,"timestamp":"2026-01-11T03:41:48Z","stake":"684006370431548","one_hour_apy":"0.0374861465238384342847736185","one_day_apy":"0.0375572735369234446803680280","seven_day_apy":"0.03956124833896882695715","thirty_day_apy":"0.0400275704930016230194","one_day_epoch_participation":null,"seven_day_epoch_participation":null,"thirty_day_epoch_participation":null},{"hotkey":{"ss58":"5GHrTeuFnJYjNJx773URbYb9Pk3bRRDiJHJFBNECZpjGqZPY","hex":"0xbaf815c3b23d3970e2699ee3799d55423ab8897ad91d8b6fc5d1478c3399aa20"},"name":"TAO Private Network","netuid":65,"block_number":7295344,"timestamp":"2026-01-11T03:41:48Z","stake":"682385428443395","one_hour_apy":"0.3873716389666215593352747462","one_day_apy":"0.3871608418596375839676301147","seven_day_apy":"0.40430396678779310191065","thirty_day_apy":"0.41707105712251102214735","one_day_epoch_participation":"1","seven_day_epoch_participation":"1","thirty_day_epoch_participation":"1"},{"hotkey":{"ss58":"5DUB7kNLvvx8Dj7D8tn54N1C7Xok6GodNPQE2WECCaL9Wgpr","hex":"0x3e22a4a0f68c310084d347f36f5b24f70f449077d3e0f34d67adcfb005533e30"},"name":"Yanez MIID","netuid":54,"block_number":7295344,"timestamp":"2026-01-11T03:41:48Z","stake":"678583016984518","one_hour_apy":"0.3912103386859419134626995073","one_day_apy":"0.3894024207997800846656961000","seven_day_apy":"0.38853186372159618986635","thirty_day_apy":"0.42085105242637319900945","one_day_epoch_participation":"1","seven_day_epoch_participation":"1","thirty_day_epoch_participation":"1"},{"hotkey":{"ss58":"5GKH9FPPnWSUoeeTJp19wVtd84XqFW4pyK2ijV2GsFbhTrP1","hex":"0xbc0e6b701243978c1fe73d721c7b157943a713fca9f3c88cad7a9f7799bc6b26"},"name":"Taostats","netuid":85,"block_number":7295344,"timestamp":"2026-01-11T03:41:48Z","stake":"676997746719217","one_hour_apy":"0.4654919773311043522438810999","one_day_apy":"0.4712268510712185315899365992","seven_day_apy":"0.4760387498987715100075","thirty_day_apy":"0.48618100603029212760555","one_day_epoch_participation":"1","seven_day_epoch_participation":"1","thirty_day_epoch_participation":"1"},{"hotkey":{"ss58":"5Ceuezr4FsuRNoGppVRsbyjgPKyZBbyqx1m4KAVve6LDsn53","hex":"0x1a160fdeb45398974900272e05083f311e851cb4beb23b4c509d64f302f7976c"},"name":"RoundTable21","netuid":53,"block_number":7295344,"timestamp":"2026-01-11T03:41:48Z","stake":"659055723849623","one_hour_apy":"0.5787125717683175541275652858","one_day_apy":"0.5792559117964358883669542953","seven_day_apy":"0.63049644192314505514345","thirty_day_apy":"0.64811875300676190703785","one_day_epoch_participation":"1","seven_day_epoch_participation":"1","thirty_day_epoch_participation":"1"},{"hotkey":{"ss58":"5DXdHixxtCvoa6GHKs2Jgrdzc61882Ftx1zN2sYFQuwgL1S1","hex":"0x40c47b6a294686fe9612b5d78dd369f4c77fa3bbf96a4286ede97410ba2e3209"},"name":"Yuma, a DCG Company","netuid":69,"block_number":7295344,"timestamp":"2026-01-11T03:41:48Z","stake":"658631724866821","one_hour_apy":"0.5195909633491380295846145458","one_day_apy":"0.5198860515429533244277625414","seven_day_apy":"0.52728071231667938158205","thirty_day_apy":"0.54277793844877436072025","one_day_epoch_participation":"1","seven_day_epoch_participation":"1","thirty_day_epoch_participation":"1"},{"hotkey":{"ss58":"5EnpBz2DoMTzMztFSVPSpi8jP2yfGadU6kgZgsjqnfvonMgu","hex":"0x789617bd926a21ca670f5d4865f449f8002ad8bc39d1a62b60783e3dde6bb624"},"name":"Macrocosmos","netuid":9,"block_number":7295344,"timestamp":"2026-01-11T03:41:48Z","stake":"650479102513916","one_hour_apy":"0.4019129261227430616067464448","one_day_apy":"0.4022082826379078804385780988","seven_day_apy":"0.41335900120851166046205","thirty_day_apy":"0.32370721114743222058775","one_day_epoch_participation":"1","seven_day_epoch_participation":"1","thirty_day_epoch_participation":"0.75041597337770382696"},{"hotkey":{"ss58":"5DXdHixxtCvoa6GHKs2Jgrdzc61882Ftx1zN2sYFQuwgL1S1","hex":"0x40c47b6a294686fe9612b5d78dd369f4c77fa3bbf96a4286ede97410ba2e3209"},"name":"Yuma, a DCG Company","netuid":58,"block_number":7295344,"timestamp":"2026-01-11T03:41:48Z","stake":"637308185887040","one_hour_apy":"0.5423849241900560416621824445","one_day_apy":"0.5443444159830633518738009522","seven_day_apy":"0.5515789394995096581958","thirty_day_apy":"0.57451438355612042641565","one_day_epoch_participation":"1","seven_day_epoch_participation":"1","thirty_day_epoch_participation":"1"},{"hotkey":{"ss58":"5GKH9FPPnWSUoeeTJp19wVtd84XqFW4pyK2ijV2GsFbhTrP1","hex":"0xbc0e6b701243978c1fe73d721c7b157943a713fca9f3c88cad7a9f7799bc6b26"},"name":"Taostats","netuid":0,"block_number":7295344,"timestamp":"2026-01-11T03:41:48Z","stake":"633716603505942","one_hour_apy":"0.0564992210703245063335317198","one_day_apy":"0.0558723210031935385897215795","seven_day_apy":"0.0701020812616108033097","thirty_day_apy":"0.06276155387836856475625","one_day_epoch_participation":null,"seven_day_epoch_participation":null,"thirty_day_epoch_participation":null},{"hotkey":{"ss58":"5Dt7HZ7Zpw4DppPxFM7Ke3Cm7sDAWhsZXmM5ZAmE7dSVJbcQ","hex":"0x5063a3000daa02d892617cda479bc20bb8acf430a8cb167e653c5395b9d4f834"},"name":"Chutes / SN64 Primary Validator","netuid":64,"block_number":7295344,"timestamp":"2026-01-11T03:41:48Z","stake":"633310343071439","one_hour_apy":"0.5128881043550028860943081981","one_day_apy":"0.5127395334789007305385497858","seven_day_apy":"0.51468472915796603030015","thirty_day_apy":"0.5403136451411222231456","one_day_epoch_participation":"1","seven_day_epoch_participation":"1","thirty_day_epoch_participation":"1"},{"hotkey":{"ss58":"5Hp18g9P8hLGKp9W3ZDr4bvJwba6b6bY3P2u3VdYf8yMR8FM","hex":"0xfe32e033f4c4b81bf0f1d2a35f3d2818a7e3fcb4464d54e6819b4d9ef9117a6a"},"name":null,"netuid":4,"block_number":7295344,"timestamp":"2026-01-11T03:41:48Z","stake":"629355803878196","one_hour_apy":"0.4889725115938492617175710502","one_day_apy":"0.4941156090780709813806131452","seven_day_apy":"0.5012417759253371705219","thirty_day_apy":"0.52245632098343024853755","one_day_epoch_participation":"1","seven_day_epoch_participation":"1","thirty_day_epoch_participation":"1"},{"hotkey":{"ss58":"5CFxLBvpyQq3TCP7zLcu8dLcPBxhA6MdLvXiCyvJVojuK17J","hex":"0x08946cc8187fb4b5d83efa0e4f59dbd0602cf71f37b74f090ed3cc2f9583d872"},"name":"Owner2","netuid":2,"block_number":7295344,"timestamp":"2026-01-11T03:41:48Z","stake":"624800595252752","one_hour_apy":"0.2924608428972910700277723215","one_day_apy":"0.2936953594723035787984447481","seven_day_apy":"0.3002765179584221442184","thirty_day_apy":"0.3655449553520038189525","one_day_epoch_participation":"1","seven_day_epoch_participation":"1","thirty_day_epoch_participation":"1"},{"hotkey":{"ss58":"5DnNzmms8Pg7YekmHsDjJXKUMYeBG8ziM9nMj19pfiH5vs45","hex":"0x4c050d14320d29d6efe752157b28985774b1d1a765f9a5e3dc4b67ff05d58411"},"name":"Rizzo (Insured)","netuid":45,"block_number":7295344,"timestamp":"2026-01-11T03:41:48Z","stake":"623910809741270","one_hour_apy":"0.3838153420012003578948306636","one_day_apy":"0.3842071676467696386656844107","seven_day_apy":"0.3963550804262420621372","thirty_day_apy":"0.3988867442107371699071","one_day_epoch_participation":"1","seven_day_epoch_participation":"1","thirty_day_epoch_participation":"1"},{"hotkey":{"ss58":"5E2LP6EnZ54m3wS8s1yPvD5c3xo71kQroBw7aUVK32TKeZ5u","hex":"0x56a9aee6291bd03ab6d36d4d13e2bebae7cd403518066c72fba1b417d6ddd748"},"name":"tao.bot","netuid":71,"block_number":7295344,"timestamp":"2026-01-11T03:41:48Z","stake":"623907556823536","one_hour_apy":"0.3902065957845467471469097883","one_day_apy":"0.3914452220423938397460331063","seven_day_apy":"0.39044911773556739097475","thirty_day_apy":"0.4052821337080508338606","one_day_epoch_participation":"1","seven_day_epoch_participation":"1","thirty_day_epoch_participation":"1"},{"hotkey":{"ss58":"5DRPoRiBSPNvgSvRsehaUhtXqPgXYrds8VS42vdzT5MzcpZV","hex":"0x3c039afa794954b4d048858ba039bdbdd321e8c6872828ebfcdfddf5bdee4922"},"name":"AlphaCore","netuid":66,"block_number":7295344,"timestamp":"2026-01-11T03:41:48Z","stake":"623904566288503","one_hour_apy":"0.3486477044580195600000852250","one_day_apy":"0.3579332271516476799066225243","seven_day_apy":"0.0957983735587114012966","thirty_day_apy":"0.0226345574797620948156","one_day_epoch_participation":"1","seven_day_epoch_participation":"0.33098591549295774648","thirty_day_epoch_participation":"0.07820299500831946755"},{"hotkey":{"ss58":"5CDnZ6oeCrXKoL2VJQuQFxSfr49yQWz2DvdaYx47hr9QdM6D","hex":"0x06ed053ff0665fcfb02fb5101f8805e1ed891c82c42c237b8f7bd5804ab34d54"},"name":"Owner46","netuid":46,"block_number":7295344,"timestamp":"2026-01-11T03:41:48Z","stake":"620159757483493","one_hour_apy":"0.3781313782781079899169899390","one_day_apy":"0.3747056201833751183277128937","seven_day_apy":"0.3826856932465993126967","thirty_day_apy":"0.39160372359957189802765","one_day_epoch_participation":"1","seven_day_epoch_participation":"1","thirty_day_epoch_participation":"1"},{"hotkey":{"ss58":"5ELzhHvgUqmnAYs74vFWjMMehXNeHkRtkreAa3g8QQS96PCp","hex":"0x64e51387c629f7852195fde79cc7c5119c7ee4bbc0da3a7f3e9ee926d6fd955f"},"name":"Owner12","netuid":12,"block_number":7295344,"timestamp":"2026-01-11T03:41:48Z","stake":"618488436330530","one_hour_apy":"0.6083125040200103232134450975","one_day_apy":"0.6096021633554862287880752060","seven_day_apy":"0.6169154307291623746766","thirty_day_apy":"0.62706448216742238652525","one_day_epoch_participation":"1","seven_day_epoch_participation":"1","thirty_day_epoch_participation":"1"},{"hotkey":{"ss58":"5Gy7xTzDwXYw4JV1TUUUt28PwUTQ95HBCYFJMwkaDmnbQUJ5","hex":"0xd8ead290762461f10a23cb2ba3be7b51e368b141badf0d1640845a1902b23b68"},"name":"Synth","netuid":50,"block_number":7295344,"timestamp":"2026-01-11T03:41:48Z","stake":"615467566992020","one_hour_apy":"0.3682008956091971966759902817","one_day_apy":"0.3660475791514829333193831638","seven_day_apy":"0.35916800581638789834995","thirty_day_apy":"0.3500039490100242888574","one_day_epoch_participation":"1","seven_day_epoch_participation":"1","thirty_day_epoch_participation":"1"},{"hotkey":{"ss58":"5FTVrwEpjvpNeKwczFtYjs62GHKKLHLCdqCThtj2unZouKg1","hex":"0x9616f6edddbacde74e626ac1801f9cbb342ef76762c89ec76a2ebf51b755e407"},"name":"Owner51","netuid":51,"block_number":7295344,"timestamp":"2026-01-11T03:41:48Z","stake":"613496271416979","one_hour_apy":"0.5136326458222061069253333109","one_day_apy":"0.5154128090522559906992206206","seven_day_apy":"0.51746258115467257943085","thirty_day_apy":"0.53019056744486878961535","one_day_epoch_participation":"1","seven_day_epoch_participation":"1","thirty_day_epoch_participation":"1"},{"hotkey":{"ss58":"5HjH8ZqfoWG6SS6UTvLHEmQVBA6gjTCdpcy7wveoDGWSPZwk","hex":"0xfa9880d5cf5ab9aaaf483e7ec44017b7a2ab101fd21e2f87e9a620a3fec5f556"},"name":"Owner84 (Tatsu)","netuid":84,"block_number":7295344,"timestamp":"2026-01-11T03:41:48Z","stake":"596266276888584","one_hour_apy":"0.6116372447722429313020885695","one_day_apy":"0.6150261027924771300685328764","seven_day_apy":"0.61845937200795441347435","thirty_day_apy":"0.65882010723738694957115","one_day_epoch_participation":"1","seven_day_epoch_participation":"1","thirty_day_epoch_participation":"1"},{"hotkey":{"ss58":"5F9uEDDovurwEJihzZSpKypipVy84EEAPHTt3EfepTjcQfij","hex":"0x88ab34ff088598e84d8000b20c1161456596b11c37812a2b93188007c262b41d"},"name":"grail","netuid":81,"block_number":7295344,"timestamp":"2026-01-11T03:41:48Z","stake":"583596063223696","one_hour_apy":"0.6032380755258481213297873474","one_day_apy":"0.6396704425798476495471456297","seven_day_apy":"0.67880059771813991957515","thirty_day_apy":"0.696954866576096731061","one_day_epoch_participation":"1","seven_day_epoch_participation":"1","thirty_day_epoch_participation":"1"},{"hotkey":{"ss58":"5DXdHixxtCvoa6GHKs2Jgrdzc61882Ftx1zN2sYFQuwgL1S1","hex":"0x40c47b6a294686fe9612b5d78dd369f4c77fa3bbf96a4286ede97410ba2e3209"},"name":"Yuma, a DCG Company","netuid":82,"block_number":7295344,"timestamp":"2026-01-11T03:41:48Z","stake":"581481678770341","one_hour_apy":"0.4998972718041785461497066846","one_day_apy":"0.4976899771470340938792361459","seven_day_apy":"0.5118296612517915763713","thirty_day_apy":"0.5514090378564760189396","one_day_epoch_participation":"1","seven_day_epoch_participation":"1","thirty_day_epoch_participation":"1"},{"hotkey":{"ss58":"5E2LP6EnZ54m3wS8s1yPvD5c3xo71kQroBw7aUVK32TKeZ5u","hex":"0x56a9aee6291bd03ab6d36d4d13e2bebae7cd403518066c72fba1b417d6ddd748"},"name":"tao.bot","netuid":62,"block_number":7295344,"timestamp":"2026-01-11T03:41:48Z","stake":"581140527554028","one_hour_apy":"0.3721272550433974899723901334","one_day_apy":"0.3644546113563430458124543719","seven_day_apy":"0.3777010878591785728352","thirty_day_apy":"0.369474104649836367876","one_day_epoch_participation":"1","seven_day_epoch_participation":"1","thirty_day_epoch_participation":"1"},{"hotkey":{"ss58":"5DXdHixxtCvoa6GHKs2Jgrdzc61882Ftx1zN2sYFQuwgL1S1","hex":"0x40c47b6a294686fe9612b5d78dd369f4c77fa3bbf96a4286ede97410ba2e3209"},"name":"Yuma, a DCG Company","netuid":55,"block_number":7295344,"timestamp":"2026-01-11T03:41:48Z","stake":"578268153706267","one_hour_apy":"0.4282369258041956732411019101","one_day_apy":"0.4292623849568105788264506049","seven_day_apy":"0.4387703993505407835303","thirty_day_apy":"0.45977669442585085557395","one_day_epoch_participation":"1","seven_day_epoch_participation":"1","thirty_day_epoch_participation":"1"},{"hotkey":{"ss58":"5EZ52JMq4S7PYqzmLAggYahyDirMx3p1f1uBtLQgx6fk7kR8","hex":"0x6e1a96eb786dc8bc93f6c47ff8fd4bc01d3b385064eb03d0409252eec491365e"},"name":"qBitTensor Labs","netuid":48,"block_number":7295344,"timestamp":"2026-01-11T03:41:48Z","stake":"570766391971780","one_hour_apy":"0.5095887941185961026040026825","one_day_apy":"0.4958792351276439795966835953","seven_day_apy":"0.1297611354067964639945","thirty_day_apy":"0.03080421346353740291345","one_day_epoch_participation":"1","seven_day_epoch_participation":"0.31690140845070422535","thirty_day_epoch_participation":"0.17470881863560732113"},{"hotkey":{"ss58":"5CG4zutn1o8ZRQKUfMqKS2DfbYUwNtbM3XqL7ZPkTkntppwK","hex":"0x08aadec752fc3df8bc27c251008fc42669636d32ff4e71ce785342aa7e0d4a1e"},"name":"oneoneone","netuid":111,"block_number":7295344,"timestamp":"2026-01-11T03:41:48Z","stake":"569992188201083","one_hour_apy":"0.6183113471986411246538907550","one_day_apy":"0.6235813014457481961620678779","seven_day_apy":"0.64857066627175095559885","thirty_day_apy":"0.7280224578028056843419","one_day_epoch_participation":"1","seven_day_epoch_participation":"1","thirty_day_epoch_participation":"1"},{"hotkey":{"ss58":"5G3wMP3g3d775hauwmAZioYFVZYnvw6eY46wkFy8hEWD5KP3","hex":"0xb05b1de3868a6b49f218680ef3978d2ade38e04700a4006bd22ec529a7517045"},"name":"Openτensor Foundaτion","netuid":26,"block_number":7295344,"timestamp":"2026-01-11T03:41:48Z","stake":"556008833122089","one_hour_apy":"0.3132938284613294918560322616","one_day_apy":"0.3318448301230559065935444348","seven_day_apy":"0.348160260185768424009","thirty_day_apy":"0.366787345138660420362","one_day_epoch_participation":"1","seven_day_epoch_participation":"1","thirty_day_epoch_participation":"1"},{"hotkey":{"ss58":"5HdTZQ6UXD7MWcRsMeExVwqAKKo4UwomUd662HvtXiZXkxmv","hex":"0xf62822946955e9c70d08ccc7eb2f3cedd3054cd5712ada28c76e7e5da961b462"},"name":null,"netuid":3,"block_number":7295344,"timestamp":"2026-01-11T03:41:48Z","stake":"554522952739427","one_hour_apy":"0.4378786194723449853740682558","one_day_apy":"0.4439589637259651765993368578","seven_day_apy":"0.4795433324217680167771","thirty_day_apy":"0.52170520962559016609335","one_day_epoch_participation":"1","seven_day_epoch_participation":"1","thirty_day_epoch_participation":"1"},{"hotkey":{"ss58":"5FFSBkNiymQWHaxc8dTmfTT7iHoz6YDexVG4xR2yLrffVR86","hex":"0x8ce3a57a4092955b903289e59515c3fe795319676c434e53375c35207fc8c151"},"name":"Kooltek68","netuid":32,"block_number":7295344,"timestamp":"2026-01-11T03:41:48Z","stake":"551043373682040","one_hour_apy":"0.3896095503242920706926160135","one_day_apy":"0.3900288890328870612972764570","seven_day_apy":"0.3875701334950943288185","thirty_day_apy":"0.4337188858935694006249","one_day_epoch_participation":"1","seven_day_epoch_participation":"1","thirty_day_epoch_participation":"1"}]}